0 32.551
0.1 38.6906
0.2 16.4493
0.3 22.473
0.4 26.8749
0.5 16.2176
0.6 33.1302
0.7 28.7283
0.8 29.1917
0.9 9.73056
1 3.24352
1.1 26.064
1.2 10.5414
1.3 26.064
1.4 33.8253
1.5 17.0285
1.6 14.2483
1.7 33.7094
1.8 25.7165
1.9 26.064
2 30.5818
2.1 24.3264
2.2 37.0688
2.3 17.4918
2.4 22.7046
2.5 51.5488
2.6 23.3997
2.7 20.6195
2.8 21.7779
2.9 23.3997
3 29.4234
3.1 27.6858
3.2 20.272
3.3 21.5462
3.4 26.4115
3.5 14.8275
3.6 21.8938
3.7 29.4234
3.8 24.2106
3.9 30.6976
4 20.7354
4.1 27.4541
4.2 14.5958
4.3 32.8986
4.4 33.9411
4.5 30.6976
4.6 36.953
4.7 22.5888
4.8 29.0758
4.9 22.8205
5 19.4611
5.1 9.15136
5.2 16.7968
5.3 18.1869
5.4 19.4611
5.5 33.0144
5.6 35.6787
5.7 26.064
5.8 20.272
5.9 28.1491
6 24.4422
6.1 22.5888
6.2 19.4611
6.3 21.0829
6.4 20.272
6.5 20.6195
6.6 26.1798
6.7 20.967
6.8 30.6976
6.9 21.7779
7 12.9741
7.1 24.4422
7.2 19.577
7.3 12.9741
7.4 23.7472
7.5 17.8394
7.6 25.4848
7.7 40.1965
7.8 17.2602
7.9 26.2957
8 29.8867
8.1 30.8134
8.2 21.1987
8.3 35.9104
8.4 16.1018
8.5 23.2838
8.6 18.9978
8.7 19.8086
8.8 22.3571
8.9 27.3382
9 16.1018
9.1 22.473
9.2 16.2176
9.3 28.4966
9.4 21.5462
9.5 32.2035
9.6 22.473
9.7 18.8819
9.8 26.5274
